%!PS-Adobe-3.0 EPSF-3.0
%%Creator: graphviz version 2.38.0 (20140413.2041)
%%Title: mentions
%%Pages: 1
%%BoundingBox: 36 36 253 283
%%EndComments
save
%%BeginProlog
/DotDict 200 dict def
DotDict begin

/setupLatin1 {
mark
/EncodingVector 256 array def
 EncodingVector 0

ISOLatin1Encoding 0 255 getinterval putinterval
EncodingVector 45 /hyphen put

% Set up ISO Latin 1 character encoding
/starnetISO {
        dup dup findfont dup length dict begin
        { 1 index /FID ne { def }{ pop pop } ifelse
        } forall
        /Encoding EncodingVector def
        currentdict end definefont
} def
/Times-Roman starnetISO def
/Times-Italic starnetISO def
/Times-Bold starnetISO def
/Times-BoldItalic starnetISO def
/Helvetica starnetISO def
/Helvetica-Oblique starnetISO def
/Helvetica-Bold starnetISO def
/Helvetica-BoldOblique starnetISO def
/Courier starnetISO def
/Courier-Oblique starnetISO def
/Courier-Bold starnetISO def
/Courier-BoldOblique starnetISO def
cleartomark
} bind def

%%BeginResource: procset graphviz 0 0
/coord-font-family /Times-Roman def
/default-font-family /Times-Roman def
/coordfont coord-font-family findfont 8 scalefont def

/InvScaleFactor 1.0 def
/set_scale {
       dup 1 exch div /InvScaleFactor exch def
       scale
} bind def

% styles
/solid { [] 0 setdash } bind def
/dashed { [9 InvScaleFactor mul dup ] 0 setdash } bind def
/dotted { [1 InvScaleFactor mul 6 InvScaleFactor mul] 0 setdash } bind def
/invis {/fill {newpath} def /stroke {newpath} def /show {pop newpath} def} bind def
/bold { 2 setlinewidth } bind def
/filled { } bind def
/unfilled { } bind def
/rounded { } bind def
/diagonals { } bind def
/tapered { } bind def

% hooks for setting color 
/nodecolor { sethsbcolor } bind def
/edgecolor { sethsbcolor } bind def
/graphcolor { sethsbcolor } bind def
/nopcolor {pop pop pop} bind def

/beginpage {	% i j npages
	/npages exch def
	/j exch def
	/i exch def
	/str 10 string def
	npages 1 gt {
		gsave
			coordfont setfont
			0 0 moveto
			(\() show i str cvs show (,) show j str cvs show (\)) show
		grestore
	} if
} bind def

/set_font {
	findfont exch
	scalefont setfont
} def

% draw text fitted to its expected width
/alignedtext {			% width text
	/text exch def
	/width exch def
	gsave
		width 0 gt {
			[] 0 setdash
			text stringwidth pop width exch sub text length div 0 text ashow
		} if
	grestore
} def

/boxprim {				% xcorner ycorner xsize ysize
		4 2 roll
		moveto
		2 copy
		exch 0 rlineto
		0 exch rlineto
		pop neg 0 rlineto
		closepath
} bind def

/ellipse_path {
	/ry exch def
	/rx exch def
	/y exch def
	/x exch def
	matrix currentmatrix
	newpath
	x y translate
	rx ry scale
	0 0 1 0 360 arc
	setmatrix
} bind def

/endpage { showpage } bind def
/showpage { } def

/layercolorseq
	[	% layer color sequence - darkest to lightest
		[0 0 0]
		[.2 .8 .8]
		[.4 .8 .8]
		[.6 .8 .8]
		[.8 .8 .8]
	]
def

/layerlen layercolorseq length def

/setlayer {/maxlayer exch def /curlayer exch def
	layercolorseq curlayer 1 sub layerlen mod get
	aload pop sethsbcolor
	/nodecolor {nopcolor} def
	/edgecolor {nopcolor} def
	/graphcolor {nopcolor} def
} bind def

/onlayer { curlayer ne {invis} if } def

/onlayers {
	/myupper exch def
	/mylower exch def
	curlayer mylower lt
	curlayer myupper gt
	or
	{invis} if
} def

/curlayer 0 def

%%EndResource
%%EndProlog
%%BeginSetup
14 default-font-family set_font
1 setmiterlimit
% /arrowlength 10 def
% /arrowwidth 5 def

% make sure pdfmark is harmless for PS-interpreters other than Distiller
/pdfmark where {pop} {userdict /pdfmark /cleartomark load put} ifelse
% make '<<' and '>>' safe on PS Level 1 devices
/languagelevel where {pop languagelevel}{1} ifelse
2 lt {
    userdict (<<) cvn ([) cvn load put
    userdict (>>) cvn ([) cvn load put
} if

%%EndSetup
setupLatin1
%%Page: 1 1
%%PageBoundingBox: 36 36 253 283
%%PageOrientation: Portrait
0 0 1 beginpage
gsave
36 36 217 247 boxprim clip newpath
1 1 set_scale 0 rotate 40 40 translate
0 0 0 graphcolor
14 /Times-Roman set_font
43.75 7.8 moveto 121 (No active trail present) alignedtext
% cluster_0
gsave
grestore
% cluster_1
gsave
grestore
% cluster_2
gsave
grestore
% b1
gsave
0 0 1 nodecolor
75 208 11 11 ellipse_path fill
1 setlinewidth
filled
0 0 1 nodecolor
75 208 11 11 ellipse_path stroke
0 0 0 nodecolor
14 /Times-Roman set_font
59.5 204.3 moveto 31 (query) alignedtext
grestore
% a1
gsave
0 1 1 nodecolor
31 208 14.5 14.5 ellipse_path fill
1 setlinewidth
filled
0 0 0 nodecolor
31 208 14.5 14.5 ellipse_path stroke
grestore
% a1->b1
% a2
gsave
0.33333 1 1 nodecolor
31 129 14.5 14.5 ellipse_path fill
1 setlinewidth
filled
0 0 0 nodecolor
31 129 14.5 14.5 ellipse_path stroke
grestore
% a1->a2
% b2
gsave
0 0 1 nodecolor
75 129 11 11 ellipse_path fill
1 setlinewidth
filled
0 0 1 nodecolor
75 129 11 11 ellipse_path stroke
0 0 0 nodecolor
14 /Times-Roman set_font
50.5 125.3 moveto 49 (observed) alignedtext
grestore
% a2->b2
% a3
gsave
1 setlinewidth
0.66667 1 1 nodecolor
newpath 45 50.33 moveto
16.5 50.33 lineto
16.5 49.67 lineto
45 49.67 lineto
45 49.5 lineto
45.5 50 lineto
45 50.5 lineto
closepath stroke
grestore
% a2->a3
% b3
gsave
0 0 1 nodecolor
75 50 11 11 ellipse_path fill
1 setlinewidth
filled
0 0 1 nodecolor
75 50 11 11 ellipse_path stroke
0 0 0 nodecolor
10 /Times-Roman set_font
53 47.5 moveto 44 (active trail) alignedtext
grestore
% a3->b3
% 1
gsave
0 1 1 nodecolor
126 208 21.5 21.5 ellipse_path fill
1 setlinewidth
filled
0 0 0 nodecolor
126 208 21.5 21.5 ellipse_path stroke
0 0 0 nodecolor
14 /Times-Roman set_font
122.5 204.3 moveto 7 (1) alignedtext
grestore
% 3
gsave
1 setlinewidth
0 0 0 nodecolor
126 129 21.5 21.5 ellipse_path stroke
0 0 0 nodecolor
14 /Times-Roman set_font
122.5 125.3 moveto 7 (3) alignedtext
grestore
% 1->3
gsave
1 setlinewidth
0 0 0 edgecolor
newpath 126 186.37 moveto
126 178.51 126 169.38 126 160.79 curveto
stroke
0 0 0 edgecolor
newpath 129.5 160.69 moveto
126 150.69 lineto
122.5 160.69 lineto
closepath fill
1 setlinewidth
solid
0 0 0 edgecolor
newpath 129.5 160.69 moveto
126 150.69 lineto
122.5 160.69 lineto
closepath stroke
grestore
% 2
gsave
0 1 1 nodecolor
187 208 21.5 21.5 ellipse_path fill
1 setlinewidth
filled
0 0 0 nodecolor
187 208 21.5 21.5 ellipse_path stroke
0 0 0 nodecolor
14 /Times-Roman set_font
183.5 204.3 moveto 7 (2) alignedtext
grestore
% 2->3
gsave
1 setlinewidth
0 0 0 edgecolor
newpath 174.06 190.67 moveto
165.73 180.16 154.75 166.29 145.39 154.47 curveto
stroke
0 0 0 edgecolor
newpath 147.87 151.97 moveto
138.92 146.31 lineto
142.38 156.32 lineto
closepath fill
1 setlinewidth
solid
0 0 0 edgecolor
newpath 147.87 151.97 moveto
138.92 146.31 lineto
142.38 156.32 lineto
closepath stroke
grestore
% 4
gsave
1 setlinewidth
0 0 0 nodecolor
187 129 21.5 21.5 ellipse_path stroke
0 0 0 nodecolor
14 /Times-Roman set_font
183.5 125.3 moveto 7 (4) alignedtext
grestore
% 2->4
gsave
1 setlinewidth
0 0 0 edgecolor
newpath 187 186.37 moveto
187 178.51 187 169.38 187 160.79 curveto
stroke
0 0 0 edgecolor
newpath 190.5 160.69 moveto
187 150.69 lineto
183.5 160.69 lineto
closepath fill
1 setlinewidth
solid
0 0 0 edgecolor
newpath 190.5 160.69 moveto
187 150.69 lineto
183.5 160.69 lineto
closepath stroke
grestore
% 5
gsave
1 setlinewidth
0 0 0 nodecolor
126 50 21.5 21.5 ellipse_path stroke
0 0 0 nodecolor
14 /Times-Roman set_font
122.5 46.3 moveto 7 (5) alignedtext
grestore
% 3->5
gsave
1 setlinewidth
0 0 0 edgecolor
newpath 126 107.37 moveto
126 99.51 126 90.38 126 81.79 curveto
stroke
0 0 0 edgecolor
newpath 129.5 81.69 moveto
126 71.69 lineto
122.5 81.69 lineto
closepath fill
1 setlinewidth
solid
0 0 0 edgecolor
newpath 129.5 81.69 moveto
126 71.69 lineto
122.5 81.69 lineto
closepath stroke
grestore
endpage
showpage
grestore
%%PageTrailer
%%EndPage: 1
%%Trailer
end
restore
%%EOF
